{
    "messageId": "52ab7d80-b150-11e7-a8c8-e4b318c04c93",
    "success": true,
    "customer": {
        "customerId": "8c0cbcc8-54da-4a69-a383-5098e70f70e0",
        "firstName": "david",
        "lastName": "test",
        "address1": "street 1x",
        "address2": "street 2x",
        "lastUpdated": "2017-10-15 15:27:00+1300",
        "_links": {
            "self": {
                "href": "/api/customers/8c0cbcc8-54da-4a69-a383-5098e70f70e0/8c0cbcc8-54da-4a69-a383-5098e70f70e0"
            }
        }
    }
}