{
	"$schema": "http://json-schema.org/draft-04/schema#",
	"allOf": [{
			"$ref": "customer.schema.json"
		},
		{
			"required": [
				"firstName",
				"lastName",
				"address1",
				"address2"
			]
		}
	]
}